Control for fmeMcmc estimation method in nlmixr2 — fmeMcmcControl • babelmixr2
…
#> elapsed 2.162762
#> 
#> ── ($parFixed or $parFixedDf): ──
#> 
#>        Est.     SE  %RSE   Back-transformed(95%CI)
#> E0  -0.7825 0.2755 35.20 -0.7825 (-1.322, -0.2426)
#> Em    4.844  1.075 22.20      4.844 (2.736, 6.952)
#> E50   2.320 0.3079 13.27      2.320 (1.717, 2.923)
#> g     2.000  FIXED FIXED                     2.000
#>  
#>   Covariance Type ($covMethod): mcmc
#>   Censoring ($censInformation): No censoring
#> 
#> ── Fit Data (object is a modified tibble): ──
#> # A tibble: 1,000 × 5
#>   ID      TIME    DV  IPRED      v
#>   <fct>  <dbl> <dbl>  <dbl>  <dbl>
#> 1 1     0.0529     0 -0.377 -0.780
#> 2 1     0.0603     0 -0.378 -0.779
#> 3 1     0.0710     0 -0.378 -0.778
#> # ℹ 997 more rows
…
