…
#> elapsed 1.450924
#> 
#> ── ($parFixed or $parFixedDf): ──
#> 
#>        Est.     SE  %RSE   Back-transformed(95%CI)
#> E0  -0.6405 0.2420 37.79 -0.6405 (-1.115, -0.1661)
#> Em    5.490  2.385 43.44     5.490 (0.8161, 10.16)
#> E50   2.859  1.230 43.02     2.859 (0.4486, 5.270)
#> g     2.000  FIXED FIXED                     2.000
#>  
#>   Covariance Type ($covMethod): r
#>   Censoring ($censInformation): No censoring
#> 
#> ── Fit Data (object is a modified tibble): ──
#> # A tibble: 1,000 × 5
#>   ID      TIME    DV  IPRED      v
#>   <fct>  <dbl> <dbl>  <dbl>  <dbl>
#> 1 1     0.0595     0 -0.424 -0.638
#> 2 1     0.0766     1 -1.06  -0.637
#> 3 1     0.0843     0 -0.425 -0.636
#> # ℹ 997 more rows
…
