Running Monolix • babelmixr2
…
#>  
#>   Covariance Type (fit$covMethod): MonolixLin
#>   No correlations in between subject variability (BSV) matrix
#>   Full BSV covariance (fit$omega) or correlation (fit$omegaR; diagonals=SDs) 
#>   Distribution stats (mean/skewness/kurtosis/p-value) available in fit$shrink 
#>   Censoring (fit$censInformation): No censoring
#>   Minimization message (fit$message):  
#>     IPRED relative difference compared to Monolix IPRED: 0.09%; 95% percentile: (0.01%,0.49%); rtol=0.000941
#>     PRED relative difference compared to Monolix PRED: 0.04%; 95% percentile: (0%,0.2%); rtol=0.000428
#>     IPRED absolute difference compared to Monolix IPRED: atol=0.00911; 95% percentile: (0.000493, 0.0928)
#>     PRED absolute difference compared to Monolix PRED: atol=0.000428; 95% percentile: (3.14e-07, 0.203)
#>     monolix model: 'pk.turnover.emax3-monolix.mlxtran' 
#> 
#> ── Fit Data (object fit is a modified tibble): ──
#> # A tibble: 483 × 35
#>   ID     TIME CMT      DV  PRED   RES IPRED   IRES  IWRES eta.ktr eta.ka eta.cl
#>   <fct> <dbl> <fct> <dbl> <dbl> <dbl> <dbl>  <dbl>  <dbl>   <dbl>  <dbl>  <dbl>
#> 1 1       0.5 cp      0    1.40 -1.40 0.500 -0.500 -0.934  -0.638 -0.447  0.689
#> 2 1       1   cp      1.9  3.94 -2.04 1.62   0.284  0.511  -0.638 -0.447  0.689
#> 3 1       2   cp      3.3  8.30 -5.00 4.29  -0.987 -1.45   -0.638 -0.447  0.689
#> # ℹ 480 more rows
#> # ℹ 23 more variables: eta.v <dbl>, eta.emax <dbl>, eta.ec50 <dbl>,
#> #   eta.kout <dbl>, eta.e0 <dbl>, cp <dbl>, depot <dbl>, gut <dbl>,
#> #   center <dbl>, effect <dbl>, ktr <dbl>, ka <dbl>, cl <dbl>, v <dbl>,
#> #   emax <dbl>, ec50 <dbl>, kout <dbl>, e0 <dbl>, DCP <dbl>, PD <dbl>,
#> #   kin <dbl>, tad <dbl>, dosenum <dbl>
…
