Obtain initial estimates and unit conversions with PKNCA • babelmixr2
…
#>    • gradient problems with initial estimate and covariance; see $scaleInfo 
#>    • last objective function was not at minimum, possible problems in optimization 
#>    • ETAs were reset to zero during optimization; (Can control by foceiControl(resetEtaP=.)) 
#>    • initial ETAs were nudged; (can control by foceiControl(etaNudge=., etaNudge2=)) 
#>   Censoring (fit$censInformation): No censoring
#>   Minimization message (fit$message):  
#>     false convergence (8) 
#>   In an ODE system, false convergence may mean "useless" evaluations were performed.
#>   See https://tinyurl.com/yyrrwkce
#>   It could also mean the convergence is poor, check results before accepting fit
#>   You may also try a good derivative free optimization:
#>     nlmixr2(...,control=list(outerOpt="bobyqa"))
#> 
#> ── Fit Data (object fit is a modified tibble): ──
#> # A tibble: 132 × 22
#>   ID     TIME    DV  PRED    RES   WRES IPRED   IRES  IWRES CPRED   CRES  CWRES
#>   <fct> <dbl> <dbl> <dbl>  <dbl>  <dbl> <dbl>  <dbl>  <dbl> <dbl>  <dbl>  <dbl>
#> 1 1      0     0.74  0     0.74   1.06   0     0.74   1.06   0     0.74   1.06 
#> 2 1      0.25  2.84  3.27 -0.432 -0.234  3.84 -1.00  -1.44   3.23 -0.389 -0.185
#> 3 1      0.57  6.57  5.84  0.730  0.297  6.78 -0.215 -0.308  5.78  0.786  0.287
#> # ℹ 129 more rows
#> # ℹ 10 more variables: eta.ka <dbl>, eta.cl <dbl>, eta.v <dbl>, depot <dbl>,
#> #   center <dbl>, ka <dbl>, cl <dbl>, vc <dbl>, tad <dbl>, dosenum <dbl>
…
