Running NONMEM with nlmixr2 • babelmixr2
…
#> 0MINIMIZATION TERMINATED
#>  DUE TO ROUNDING ERRORS (ERROR=134)
#>  NO. OF FUNCTION EVALUATIONS USED:     1088
#>  NO. OF SIG. DIGITS UNREPORTABLE
#> 0PARAMETER ESTIMATE IS NEAR ITS BOUNDARY
#> 
#>     IPRED relative difference compared to Nonmem IPRED: 0%; 95% percentile: (0%,0%); rtol=6.36e-06
#>     PRED relative difference compared to Nonmem PRED: 0%; 95% percentile: (0%,0%); rtol=6.08e-06
#>     IPRED absolute difference compared to Nonmem IPRED: 95% percentile: (2.53e-06, 0.000502); atol=7.15e-05
#>     PRED absolute difference compared to Nonmem PRED: 95% percentile: (3.79e-07,0.00321); atol=6.08e-06
#>     there are solving errors during optimization (see '$prderr')
#>     nonmem model: 'pk.turnover.emax3-nonmem/pk.turnover.emax3.nmctl' 
#> 
#> ── Fit Data (object is a modified tibble): ──
#> # A tibble: 483 × 35
#>   ID     TIME CMT      DV  PRED   RES IPRED   IRES  IWRES eta.ktr eta.ka eta.cl
#>   <fct> <dbl> <fct> <dbl> <dbl> <dbl> <dbl>  <dbl>  <dbl>   <dbl>  <dbl>  <dbl>
#> 1 1       0.5 cp      0    1.16 -1.16 0.444 -0.444 -0.864  -0.506 -0.506  0.699
#> 2 1       1   cp      1.9  3.37 -1.47 1.45   0.446  0.840  -0.506 -0.506  0.699
#> 3 1       2   cp      3.3  7.51 -4.21 3.96  -0.660 -1.03   -0.506 -0.506  0.699
#> # ℹ 480 more rows
#> # ℹ 23 more variables: eta.v <dbl>, eta.emax <dbl>, eta.ec50 <dbl>,
#> #   eta.kout <dbl>, eta.e0 <dbl>, cp <dbl>, depot <dbl>, gut <dbl>,
#> #   center <dbl>, effect <dbl>, ktr <dbl>, ka <dbl>, cl <dbl>, v <dbl>,
#> #   emax <dbl>, ec50 <dbl>, kout <dbl>, e0 <dbl>, DCP <dbl>, PD <dbl>,
#> #   kin <dbl>, tad <dbl>, dosenum <dbl>
…
#> 0MINIMIZATION SUCCESSFUL
#>  HOWEVER, PROBLEMS OCCURRED WITH THE MINIMIZATION.
#>  REGARD THE RESULTS OF THE ESTIMATION STEP CAREFULLY, AND ACCEPT THEM ONLY
#>  AFTER CHECKING THAT THE COVARIANCE STEP PRODUCES REASONABLE OUTPUT.
#>  NO. OF FUNCTION EVALUATIONS USED:     2391
#>  NO. OF SIG. DIGITS IN FINAL EST.:  4.1
#> 
#>     IPRED relative difference compared to Nonmem IPRED: 0%; 95% percentile: (0%,0%); rtol=6.85e-06
#>     PRED relative difference compared to Nonmem PRED: 0%; 95% percentile: (0%,0%); rtol=6.45e-06
#>     IPRED absolute difference compared to Nonmem IPRED: 95% percentile: (2.89e-06, 0.000506); atol=7.19e-05
#>     PRED absolute difference compared to Nonmem PRED: 95% percentile: (5.14e-07,0.00318); atol=6.45e-06
#>     nonmem model: 'pk.turnover.emax4-nonmem/pk.turnover.emax4.nmctl' 
#> 
#> ── Fit Data (object f2 is a modified tibble): ──
#> # A tibble: 483 × 32
#>   ID     TIME CMT      DV  PRED   RES IPRED   IRES IWRES eta.cl eta.v eta.ec50
#>   <fct> <dbl> <fct> <dbl> <dbl> <dbl> <dbl>  <dbl> <dbl>  <dbl> <dbl>    <dbl>
#> 1 1       0.5 cp      0    1.16 -1.16 0.920 -0.920 -1.56  0.689 0.228    0.160
#> 2 1       1   cp      1.9  3.38 -1.48 2.68  -0.780 -1.09  0.689 0.228    0.160
#> 3 1       2   cp      3.3  7.53 -4.23 5.94  -2.64  -2.36  0.689 0.228    0.160
#> # ℹ 480 more rows
#> # ℹ 20 more variables: eta.kout <dbl>, eta.e0 <dbl>, cp <dbl>, depot <dbl>,
#> #   gut <dbl>, center <dbl>, effect <dbl>, ktr <dbl>, ka <dbl>, cl <dbl>,
#> #   v <dbl>, emax <dbl>, ec50 <dbl>, kout <dbl>, e0 <dbl>, DCP <dbl>, PD <dbl>,
#> #   kin <dbl>, tad <dbl>, dosenum <dbl>
…
